{"data": 
    {"artists": 
        {"href": "https://api.spotify.com/v1/search?query=the+beastie+boys&type=artist&offset=0&limit=10",
            "items": [{"external_urls": {"spotify": "https://open.spotify.com/artist/03r4iKL2g2442PT9n2UKsx"}, "followers": {"href": null, "total": 2531841}, "genres": ["alternative rock", "east coast hip hop", "golden age hip hop", "hip hop", "old school hip hop", "rap", "rap rock", "rock"], "href": "https://api.spotify.com/v1/artists/03r4iKL2g2442PT9n2UKsx", "id": "03r4iKL2g2442PT9n2UKsx", "images": [{"height": 771, "url": "https://i.scdn.co/image/705bcd56dc5dbf9ebc578a3ba8094e6d622862c2", "width": 1000}, {"height": 494, "url": "https://i.scdn.co/image/060ef251f0e12353057c36fe94724b688b963dac", "width": 640}, {"height": 154, "url": "https://i.scdn.co/image/eb9a69f247e84b9e9ce8b03f1ab5cca399b49cbc", "width": 200}, {"height": 49, "url": "https://i.scdn.co/image/b6fafee2c4c169dadf039c2066ab77beb4c82b3e", "width": 64}], "name": "Beastie Boys", "popularity": 70, "type": "artist", "uri": "spotify:artist:03r4iKL2g2442PT9n2UKsx"}, {"external_urls": {"spotify": "https://open.spotify.com/artist/6EFL6smxzRtpwlQvZFldUc"}, "followers": {"href": null, "total": 126842}, "genres": ["east coast hip hop"], "href": "https://api.spotify.com/v1/artists/6EFL6smxzRtpwlQvZFldUc", "id": "6EFL6smxzRtpwlQvZFldUc", "images": [{"height": 1276, "url": "https://i.scdn.co/image/acb236f47d45844394661d0295f1f52276e6316d", "width": 1000}, {"height": 817, "url": "https://i.scdn.co/image/7be38d20447d1165f3084c2be96b462dafa79d00", "width": 640}, {"height": 255, "url": "https://i.scdn.co/image/b7fa48dccb4cfbbf99f7ef91ef3e980f5342d5d8", "width": 200}, {"height": 82, "url": "https://i.scdn.co/image/3834039196c5b439b86bb5540facf8f26053f750", "width": 64}], "name": "3rd Bass", "popularity": 31, "type": "artist", "uri": "spotify:artist:6EFL6smxzRtpwlQvZFldUc"}, {"external_urls": {"spotify": "https://open.spotify.com/artist/7l8dcABCTyZKrkskt53Z2u"}, "followers": {"href": null, "total": 322322}, "genres": [], "href": "https://api.spotify.com/v1/artists/7l8dcABCTyZKrkskt53Z2u", "id": "7l8dcABCTyZKrkskt53Z2u", "images": [{"height": 640, "url": "https://i.scdn.co/image/ab6761610000e5eb45766e41d5e2f078ef0a9cc2", "width": 640}, {"height": 320, "url": "https://i.scdn.co/image/ab6761610000517445766e41d5e2f078ef0a9cc2", "width": 320}, {"height": 160, "url": "https://i.scdn.co/image/ab6761610000f17845766e41d5e2f078ef0a9cc2", "width": 160}], "name": "TJ_beastboy", "popularity": 61, "type": "artist", "uri": "spotify:artist:7l8dcABCTyZKrkskt53Z2u"}, {"external_urls": {"spotify": "https://open.spotify.com/artist/3hihvmS048d6bb8YlZaTU1"}, "followers": {"href": null, "total": 13570}, "genres": ["indie surf", "scottish indie rock"], "href": "https://api.spotify.com/v1/artists/3hihvmS048d6bb8YlZaTU1", "id": "3hihvmS048d6bb8YlZaTU1", "images": [{"height": 640, "url": "https://i.scdn.co/image/ab6761610000e5eb6f695dea320c5661e57fab74", "width": 640}, {"height": 320, "url": "https://i.scdn.co/image/ab676161000051746f695dea320c5661e57fab74", "width": 320}, {"height": 160, "url": "https://i.scdn.co/image/ab6761610000f1786f695dea320c5661e57fab74", "width": 160}], "name": "Lucia & The Best Boys", "popularity": 28, "type": "artist", "uri": "spotify:artist:3hihvmS048d6bb8YlZaTU1"}, {"external_urls": {"spotify": "https://open.spotify.com/artist/6OcU3UmKhF2bMKy2saQrYB"}, "followers": {"href": null, "total": 2642}, "genres": ["classic hardstyle"], "href": "https://api.spotify.com/v1/artists/6OcU3UmKhF2bMKy2saQrYB", "id": "6OcU3UmKhF2bMKy2saQrYB", "images": [{"height": 640, "url": "https://i.scdn.co/image/ab67616d0000b273fc5f7ba080a1c4e3022d71b2", "width": 640}, {"height": 300, "url": "https://i.scdn.co/image/ab67616d00001e02fc5f7ba080a1c4e3022d71b2", "width": 300}, {"height": 64, "url": "https://i.scdn.co/image/ab67616d00004851fc5f7ba080a1c4e3022d71b2", "width": 64}], "name": "The Nasty Boyz", "popularity": 19, "type": "artist", "uri": "spotify:artist:6OcU3UmKhF2bMKy2saQrYB"}, {"external_urls": {"spotify": "https://open.spotify.com/artist/1bRdLOsrloI092NhkOl4DL"}, "followers": {"href": null, "total": 436}, "genres": [], "href": "https://api.spotify.com/v1/artists/1bRdLOsrloI092NhkOl4DL", "id": "1bRdLOsrloI092NhkOl4DL", "images": [{"height": 640, "url": "https://i.scdn.co/image/ab6761610000e5ebbf8e5e8732dc250bb54b7d90", "width": 640}, {"height": 320, "url": "https://i.scdn.co/image/ab67616100005174bf8e5e8732dc250bb54b7d90", "width": 320}, {"height": 160, "url": "https://i.scdn.co/image/ab6761610000f178bf8e5e8732dc250bb54b7d90", "width": 160}], "name": "Beastboy", "popularity": 25, "type": "artist", "uri": "spotify:artist:1bRdLOsrloI092NhkOl4DL"}, {"external_urls": {"spotify": "https://open.spotify.com/artist/6q0Dhe6TgMq4Qw07QjlwPu"}, "followers": {"href": null, "total": 558}, "genres": [], "href": "https://api.spotify.com/v1/artists/6q0Dhe6TgMq4Qw07QjlwPu", "id": "6q0Dhe6TgMq4Qw07QjlwPu", "images": [{"height": 640, "url": "https://i.scdn.co/image/ab67616d0000b27303593f08a15883dc337ceae5", "width": 640}, {"height": 300, "url": "https://i.scdn.co/image/ab67616d00001e0203593f08a15883dc337ceae5", "width": 300}, {"height": 64, "url": "https://i.scdn.co/image/ab67616d0000485103593f08a15883dc337ceae5", "width": 64}], "name": "Bessie Banks", "popularity": 11, "type": "artist", "uri": "spotify:artist:6q0Dhe6TgMq4Qw07QjlwPu"}, {"external_urls": {"spotify": "https://open.spotify.com/artist/2RWFdhOlGynHHv8e89HfTt"}, "followers": {"href": null, "total": 9}, "genres": [], "href": "https://api.spotify.com/v1/artists/2RWFdhOlGynHHv8e89HfTt", "id": "2RWFdhOlGynHHv8e89HfTt", "images": [{"height": 640, "url": "https://i.scdn.co/image/ab67616d0000b273ea3483a7ad899ee2a881d190", "width": 640}, {"height": 300, "url": "https://i.scdn.co/image/ab67616d00001e02ea3483a7ad899ee2a881d190", "width": 300}, {"height": 64, "url": "https://i.scdn.co/image/ab67616d00004851ea3483a7ad899ee2a881d190", "width": 64}], "name": "Beastie", "popularity": 11, "type": "artist", "uri": "spotify:artist:2RWFdhOlGynHHv8e89HfTt"}, {"external_urls": {"spotify": "https://open.spotify.com/artist/0e6si4eBTPWosfLhmEyo4L"}, "followers": {"href": null, "total": 6538}, "genres": ["dirty texas rap", "houston rap"], "href": "https://api.spotify.com/v1/artists/0e6si4eBTPWosfLhmEyo4L", "id": "0e6si4eBTPWosfLhmEyo4L", "images": [{"height": 640, "url": "https://i.scdn.co/image/ab67616d0000b273bfd3b81183dbf0cf3fb8096a", "width": 640}, {"height": 300, "url": "https://i.scdn.co/image/ab67616d00001e02bfd3b81183dbf0cf3fb8096a", "width": 300}, {"height": 64, "url": "https://i.scdn.co/image/ab67616d00004851bfd3b81183dbf0cf3fb8096a", "width": 64}], "name": "Mike D", "popularity": 39, "type": "artist", "uri": "spotify:artist:0e6si4eBTPWosfLhmEyo4L"}, {"external_urls": {"spotify": "https://open.spotify.com/artist/0e87rlA12iAl7kIonLl2e4"}, "followers": {"href": null, "total": 4703}, "genres": ["dubstep", "gaming dubstep"], "href": "https://api.spotify.com/v1/artists/0e87rlA12iAl7kIonLl2e4", "id": "0e87rlA12iAl7kIonLl2e4", "images": [{"height": 640, "url": "https://i.scdn.co/image/ab6761610000e5eb14f41c5651dbb6681dd954a8", "width": 640}, {"height": 320, "url": "https://i.scdn.co/image/ab6761610000517414f41c5651dbb6681dd954a8", "width": 320}, {"height": 160, "url": "https://i.scdn.co/image/ab6761610000f17814f41c5651dbb6681dd954a8", "width": 160}], "name": "beastboi.", "popularity": 25, "type": "artist", "uri": "spotify:artist:0e87rlA12iAl7kIonLl2e4"}], "limit": 10, "next": "https://api.spotify.com/v1/search?query=the+beastie+boys&type=artist&offset=10&limit=10", "offset": 0, "previous": null, "total": 56}}, "name": null, "type": "artist"}
